window.onload = function() {

  $.ajax({
    async: false,
    url: '../php/read.php',
    type: "POST",
    data: "metod=read-news",
    success: function(msq){
      alert(msq);
      result_arr=msq;
    }
  });
  arr=JSON.parse(result_arr);


  $.ajax({
    async: false,
    url: '../php/read.php',
    type: "POST",
    data: "metod=read-children",
    success: function(msq){
      alert(msq);
      result_arr=msq;
    }
  });
  arr=JSON.parse(result_arr);


  $.ajax({
    async: false,
    url: '../php/read.php',
    type: "POST",
    data: "metod=read-team",
    success: function(msq){
      alert(msq);
      result_arr=msq;
    }
  });
  var team=JSON.parse(result_arr);


  $.ajax({
    async: false,
    url: '../php/read.php',
    type: "POST",
    data: "metod=read-partners",
    success: function(msq){
      //alert(msq);
      result_arr=msq;
    }
  });
   var partners=JSON.parse(result_arr);



  $.ajax({
    async: false,
    url: '../php/read.php',
    type: "POST",
    data: "metod=read-report",
    success: function(msq){
      alert(msq);
      result_arr=msq;
    }
  });
  var report=JSON.parse(result_arr);

  $.ajax({
    async: false,
    url: '../php/read.php',
    type: "POST",
    data: "metod=read-report_doc",
    success: function(msq){
      alert(msq);
      result_arr=msq;
    }
  });
  var report_doc=JSON.parse(result_arr);


};
